newmtl Material_1
Ka 0.200000 0.200000 0.200000
Kd 0.000000 0.000000 1.000000
Ks 0.000000 0.000000 0.000000
illum 2
Ns 8.000000

newmtl Material_2
Ka 0.200000 0.200000 0.200000
Kd 0.000000 0.000000 1.000000
Ks 0.000000 0.000000 0.000000
illum 2
Ns 8.000000

newmtl Material_3
Ka 0.200000 0.200000 0.200000
Kd 0.000000 0.000000 1.000000
Ks 0.000000 0.000000 0.000000
illum 2
Ns 8.000000

newmtl Material_4
Ka 0.200000 0.200000 0.200000
Kd 0.000000 0.000000 1.000000
Ks 0.000000 0.000000 0.000000
illum 2
Ns 8.000000

newmtl Material_5
Ka 0.200000 0.200000 0.200000
Kd 0.000000 0.000000 1.000000
Ks 0.000000 0.000000 0.000000
illum 2
Ns 8.000000

newmtl Material_6
Ka 0.200000 0.200000 0.200000
Kd 0.000000 0.000000 1.000000
Ks 0.000000 0.000000 0.000000
illum 2
Ns 8.000000

newmtl Material_7
Ka 0.200000 0.200000 0.200000
Kd 0.000000 0.000000 1.000000
Ks 0.000000 0.000000 0.000000
illum 2
Ns 8.000000

newmtl Material_8
Ka 0.200000 0.200000 0.200000
Kd 0.000000 0.000000 1.000000
Ks 0.000000 0.000000 0.000000
illum 2
Ns 8.000000

newmtl Material_9
Ka 0.200000 0.200000 0.200000
Kd 0.000000 0.000000 1.000000
Ks 0.000000 0.000000 0.000000
illum 2
Ns 8.000000

newmtl Material_10
Ka 0.200000 0.200000 0.200000
Kd 0.000000 0.000000 1.000000
Ks 0.000000 0.000000 0.000000
illum 2
Ns 8.000000

newmtl Material_11
Ka 0.200000 0.200000 0.200000
Kd 0.000000 0.000000 1.000000
Ks 0.000000 0.000000 0.000000
illum 2
Ns 8.000000

newmtl Material_12
Ka 0.200000 0.200000 0.200000
Kd 0.000000 0.000000 1.000000
Ks 0.000000 0.000000 0.000000
illum 2
Ns 8.000000

newmtl Material_13
Ka 0.200000 0.200000 0.200000
Kd 0.000000 0.000000 1.000000
Ks 0.000000 0.000000 0.000000
illum 2
Ns 8.000000

newmtl Material_14
Ka 0.200000 0.200000 0.200000
Kd 0.000000 0.000000 1.000000
Ks 0.000000 0.000000 0.000000
illum 2
Ns 8.000000

newmtl Material_15
Ka 0.200000 0.200000 0.200000
Kd 0.000000 0.000000 1.000000
Ks 0.000000 0.000000 0.000000
illum 2
Ns 8.000000

newmtl Material_16
Ka 0.200000 0.200000 0.200000
Kd 0.000000 0.000000 1.000000
Ks 0.000000 0.000000 0.000000
illum 2
Ns 8.000000

newmtl Material_17
Ka 0.200000 0.200000 0.200000
Kd 0.000000 0.000000 1.000000
Ks 0.000000 0.000000 0.000000
illum 2
Ns 8.000000

newmtl Material_18
Ka 0.200000 0.200000 0.200000
Kd 0.000000 0.000000 1.000000
Ks 0.000000 0.000000 0.000000
illum 2
Ns 8.000000

newmtl Material_19
Ka 0.200000 0.200000 0.200000
Kd 0.000000 0.000000 1.000000
Ks 0.000000 0.000000 0.000000
illum 2
Ns 8.000000

newmtl Material_20
Ka 0.200000 0.200000 0.200000
Kd 0.000000 0.000000 1.000000
Ks 0.000000 0.000000 0.000000
illum 2
Ns 8.000000

newmtl Material_21
Ka 0.200000 0.200000 0.200000
Kd 0.000000 0.000000 1.000000
Ks 0.000000 0.000000 0.000000
illum 2
Ns 8.000000

newmtl Material_22
Ka 0.200000 0.200000 0.200000
Kd 0.000000 0.000000 1.000000
Ks 0.000000 0.000000 0.000000
illum 2
Ns 8.000000

newmtl Material_23
Ka 0.200000 0.200000 0.200000
Kd 0.000000 0.000000 1.000000
Ks 0.000000 0.000000 0.000000
illum 2
Ns 8.000000

newmtl Material_24
Ka 0.200000 0.200000 0.200000
Kd 0.000000 0.000000 1.000000
Ks 0.000000 0.000000 0.000000
illum 2
Ns 8.000000

newmtl Material_25
Ka 0.200000 0.200000 0.200000
Kd 0.000000 0.000000 1.000000
Ks 0.000000 0.000000 0.000000
illum 2
Ns 8.000000

newmtl Material_26
Ka 0.200000 0.200000 0.200000
Kd 0.000000 0.000000 1.000000
Ks 0.000000 0.000000 0.000000
illum 2
Ns 8.000000

newmtl Material_27
Ka 0.200000 0.200000 0.200000
Kd 0.000000 0.000000 1.000000
Ks 0.000000 0.000000 0.000000
illum 2
Ns 8.000000

newmtl Material_28
Ka 0.200000 0.200000 0.200000
Kd 0.000000 0.000000 1.000000
Ks 0.000000 0.000000 0.000000
illum 2
Ns 8.000000

newmtl Material_29
Ka 0.200000 0.200000 0.200000
Kd 0.000000 0.000000 1.000000
Ks 0.000000 0.000000 0.000000
illum 2
Ns 8.000000

newmtl Material_30
Ka 0.200000 0.200000 0.200000
Kd 0.000000 0.000000 1.000000
Ks 0.000000 0.000000 0.000000
illum 2
Ns 8.000000

newmtl Material_31
Ka 0.200000 0.200000 0.200000
Kd 0.000000 0.000000 1.000000
Ks 0.000000 0.000000 0.000000
illum 2
Ns 8.000000

newmtl Material_32
Ka 0.200000 0.200000 0.200000
Kd 0.000000 0.000000 1.000000
Ks 0.000000 0.000000 0.000000
illum 2
Ns 8.000000

newmtl Material_33
Ka 0.200000 0.200000 0.200000
Kd 0.000000 0.000000 1.000000
Ks 0.000000 0.000000 0.000000
illum 2
Ns 8.000000

newmtl Material_34
Ka 0.200000 0.200000 0.200000
Kd 0.000000 0.000000 1.000000
Ks 0.000000 0.000000 0.000000
illum 2
Ns 8.000000

newmtl Material_35
Ka 0.200000 0.200000 0.200000
Kd 0.000000 0.000000 1.000000
Ks 0.000000 0.000000 0.000000
illum 2
Ns 8.000000

newmtl Material_36
Ka 0.200000 0.200000 0.200000
Kd 0.000000 0.000000 1.000000
Ks 0.000000 0.000000 0.000000
illum 2
Ns 8.000000

newmtl Material_37
Ka 0.200000 0.200000 0.200000
Kd 0.000000 0.000000 1.000000
Ks 0.000000 0.000000 0.000000
illum 2
Ns 8.000000

newmtl Material_38
Ka 0.200000 0.200000 0.200000
Kd 0.000000 0.000000 1.000000
Ks 0.000000 0.000000 0.000000
illum 2
Ns 8.000000

newmtl Material_39
Ka 0.200000 0.200000 0.200000
Kd 0.000000 0.000000 1.000000
Ks 0.000000 0.000000 0.000000
illum 2
Ns 8.000000

newmtl Material_40
Ka 0.200000 0.200000 0.200000
Kd 0.000000 0.000000 1.000000
Ks 0.000000 0.000000 0.000000
illum 2
Ns 8.000000

newmtl Material_41
Ka 0.200000 0.200000 0.200000
Kd 0.000000 0.000000 1.000000
Ks 0.000000 0.000000 0.000000
illum 2
Ns 8.000000

