mtllib obj.mtl

g Object
v 44.365768 7.323978 106.469246
v -36.362164 7.232693 106.551064
v 44.704170 9.060450 106.261574
v -14.873993 52.796036 -103.579811
v -9.097080 49.157631 -87.889984
v -11.231723 45.983284 -97.449196
v -13.309624 42.907444 -104.259117
v -18.990114 94.005074 -41.108421
v -21.640295 83.086914 -34.290363
v -13.282884 80.224930 -40.313999
v -14.857320 59.739403 -34.047657
v -8.788654 61.301380 -40.378128
v -11.231723 45.983284 -40.893543
v -9.097080 49.778618 -50.464905
v -5.271840 63.672142 -60.598919
v -7.495333 62.569321 -89.373795
v -18.308855 66.393890 -105.941238
v -9.097943 81.805153 -62.144863
v -13.309624 42.907444 -34.079720
v -16.367435 95.036606 -61.637505
v -10.581992 80.761337 -90.439537
v -16.783878 94.194069 -87.698738
v -25.804441 100.694550 -85.343597
v -25.390585 100.975807 -61.644958
v -37.192078 100.383026 -79.501663
v -35.963249 100.642036 -61.238758
v -26.695517 100.224686 -41.646423
v -37.519665 99.230576 -103.435555
v -48.861103 96.710556 -105.946228
v -48.863129 97.662506 -62.643772
v -36.853180 100.565506 -41.667572
v -29.577055 98.874062 -34.236099
v -26.189541 95.748192 -34.193985
v -48.979748 97.655983 1.006206
v -36.715157 99.957237 -27.989174
v -20.406019 90.535339 -117.979187
v -19.024523 93.074081 -105.477249
v -15.258519 84.376572 -106.064056
v -17.489576 84.828629 -117.094460
v -20.168615 85.638412 -124.023613
v -28.376419 95.258194 -121.319977
v -26.796522 98.970032 -105.545715
v -37.539799 96.862816 -118.230667
v -48.584118 94.510185 -118.672920
v -47.909847 92.147469 -125.027679
v -26.549349 77.839355 -131.696640
v -27.333441 87.309975 -130.629532
v -37.009212 94.398018 -125.345238
v -36.044907 89.327263 -131.073105
v -34.241798 84.566818 -133.696198
v -47.063747 88.888290 -130.134369
v -45.781048 83.468170 -133.669525
v -44.628223 79.115677 -134.399338
v -33.820862 74.699020 -132.829544
v -34.245918 79.985939 -134.308472
v -43.017487 73.446571 -132.940598
v -33.701912 70.219467 -128.462479
v -24.798460 71.776154 -124.477707
v -20.603945 77.854324 -125.661850
v -42.815269 68.930328 -129.932022
v -14.448636 76.063553 -107.820175
v -20.451164 70.997429 -113.122894
v -17.130167 76.286377 -118.348289
v 42.222115 47.001255 89.448700
v 14.089447 48.444954 89.715897
v 41.283493 45.906044 99.520653
v 13.313782 46.462025 99.909958
v 49.980412 42.561810 89.262711
v 49.980412 42.561810 53.042160
v 47.851807 42.242027 99.744034
v 44.853130 40.468262 104.918190
v 39.666611 43.331474 104.871582
v -13.309624 42.907444 106.271576
v -11.231723 45.983284 99.461670
v -9.097081 48.312172 89.899902
v -9.097081 48.312172 52.467678
v 14.089447 48.444954 52.651676
v 42.222115 47.001255 52.822914
v 41.283493 45.906044 42.009907
v 13.313782 46.462025 42.289303
v -11.231723 45.983284 42.905983
v -13.309624 42.907444 36.091759
v 39.666611 43.331474 36.092907
v 44.853130 40.468262 36.093193
v 47.851807 42.242027 41.832077
v -21.765474 -0.295640 -115.901329
v -31.472576 -0.257279 -105.283691
v -31.331396 0.002371 -116.253555
v 38.168091 7.655348 -121.280220
v -36.362164 7.232693 -104.538589
v -35.563580 7.405664 -120.459534
v 44.365768 7.323977 -104.456879
v 44.747807 7.558468 -119.524475
v -21.838421 -0.180493 -105.141205
v -18.944689 94.387985 -27.935284
v -13.293904 84.716850 1.006206
v -15.521131 84.210373 -28.108051
v -21.640295 83.086914 -34.290363
v -26.189541 95.748192 -34.193985
v -14.857320 59.739403 -34.047657
v -8.955038 60.980728 -27.740797
v -7.038251 61.114418 1.006206
v -15.521131 84.210373 30.120459
v -18.944689 94.387985 29.947714
v -17.977812 94.836853 1.006206
v -27.210478 99.787994 -27.602877
v -29.577055 98.874062 -34.236099
v -36.715157 99.957237 -27.989174
v -8.955038 60.980728 29.753216
v -36.715157 99.957237 30.001589
v -36.735855 100.090172 1.006206
v -48.979748 97.655983 1.006206
v -27.235970 99.690414 1.006206
v -27.210478 99.787994 29.615295
v -26.189541 95.748192 36.206406
v -21.640295 83.086914 36.302792
v -29.577055 98.874062 36.248516
v -14.857320 59.739403 36.060078
v -11.231723 45.983284 29.279160
v -9.097081 48.312172 19.717533
v -9.097081 48.312172 -17.714783
v -11.231723 45.983284 -27.276506
v -13.309624 42.907444 -34.079720
v -13.309624 42.907444 36.091759
v -32.180569 7.860853 -104.734421
v -31.472576 -0.257279 -105.283691
v 38.151596 28.677757 125.223145
v -35.563580 7.405664 122.471931
v 38.168091 7.655348 123.058044
v 43.599480 28.571980 123.626587
v 44.747807 7.558468 121.330109
v 44.726139 46.317490 124.767471
v 38.133106 45.249603 126.164314
v -38.456169 28.708286 128.854095
v -24.798460 71.776154 126.490227
v 38.159763 68.416847 131.049423
v 37.945446 71.210442 122.496674
v 44.354816 66.415886 130.114685
v 38.159454 62.795525 136.611694
v 43.987381 61.933670 134.719360
v 38.159172 55.258923 136.759506
v 43.373199 55.118614 135.441406
v 38.134251 48.665249 133.348160
v 43.820599 49.086590 132.022186
v -42.668510 67.195229 135.573166
v -33.701912 70.219467 130.474854
v -42.815269 68.930328 131.944412
v -31.202393 68.465622 134.657379
v -42.144451 61.462902 140.081650
v -41.136265 54.564251 140.361298
v -40.814976 48.062408 136.168701
v -41.158890 45.333595 129.126236
v -20.949266 7.862305 -104.662506
v 42.877716 64.099380 106.207588
v 44.474258 51.412399 104.877716
v 37.869339 52.269753 103.773254
v 37.819798 66.012726 106.048378
v 38.054909 70.698494 113.507515
v 43.804214 67.613731 113.609451
v 43.864506 68.126770 122.443970
v 44.853130 40.468262 104.918190
v 39.666611 43.331474 104.871582
v -13.309624 42.907444 106.271576
v -14.873993 52.796036 105.592293
v -18.308855 66.393890 107.953758
v -20.451164 70.997429 115.135384
v -14.873993 52.796036 105.592293
v -13.309624 42.907444 106.271576
v -11.231723 45.983284 99.461670
v -9.097081 48.312172 89.899902
v -7.495333 62.569321 91.386169
v -18.308855 66.393890 107.953758
v -10.581992 80.761337 92.451996
v -14.448636 76.063553 109.832497
v -15.258519 84.376572 108.076530
v -17.489576 84.828629 119.106956
v -17.130167 76.286377 120.360748
v -20.451164 70.997429 115.135384
v -24.798460 71.776154 126.490227
v -20.603945 77.854324 127.674301
v -20.168615 85.638412 126.036102
v -20.406019 90.535339 119.991745
v -19.024523 93.074081 107.489670
v -16.783878 94.194069 89.711235
v -9.097943 81.805153 64.157242
v -16.367435 95.036606 63.649883
v -18.990114 94.005074 43.120853
v -13.282884 80.224930 42.326416
v -5.271840 63.672142 62.611351
v -8.788654 61.301380 42.390560
v -26.695517 100.224686 43.658855
v -26.189541 95.748192 36.206406
v -21.640295 83.086914 36.302792
v -14.857320 59.739403 36.060078
v -11.231723 45.983284 42.905983
v -9.097081 48.312172 52.467678
v -13.309624 42.907444 36.091759
v -25.390585 100.975807 63.657444
v -35.963249 100.642036 63.251137
v -36.853180 100.565506 43.680000
v -48.863129 97.662506 64.656181
v -48.979748 97.655983 1.006206
v -36.715157 99.957237 30.001589
v -29.577055 98.874062 36.248516
v -37.192078 100.383026 81.514107
v -48.861103 96.710556 107.958641
v -37.519665 99.230576 105.447922
v -25.804441 100.694550 87.356094
v -26.796522 98.970032 107.558098
v -28.376419 95.258194 123.332390
v -37.539799 96.862816 120.243065
v -26.549349 77.839355 133.708969
v -27.333441 87.309975 132.641953
v -37.009212 94.398018 127.357582
v -47.909847 92.147469 127.040169
v -48.584118 94.510185 120.685425
v -33.820862 74.699020 134.841934
v -33.701912 70.219467 130.474854
v -34.245918 79.985939 136.320923
v -34.241798 84.566818 135.708649
v -47.063747 88.888290 132.146790
v -36.044907 89.327263 133.085495
v -45.781048 83.468170 135.681885
v -44.628223 79.115677 136.411804
v -43.017487 73.446571 134.953033
v -42.815269 68.930328 131.944412
v 14.089447 49.293438 -87.709122
v 42.222115 47.852859 -87.494995
v 41.283493 45.906044 -97.598450
v 14.089447 49.908314 -50.651978
v 42.222115 48.462048 -50.789635
v 41.283493 45.906044 -39.997471
v 13.313782 46.462025 -40.276871
v -9.097080 49.778618 -50.464905
v -11.231723 45.983284 -40.893543
v -9.097080 49.157631 -87.889984
v 13.313782 46.462025 -98.004524
v 39.666611 43.331474 -102.822746
v 44.853130 40.468262 -102.965469
v 47.851807 42.242027 -97.898361
v -13.309624 42.907444 -104.259117
v -11.231723 45.983284 -97.449196
v 50.094452 42.561810 -87.312973
v 50.094452 42.561810 -51.029728
v 47.851807 42.242027 -39.819645
v 44.853130 40.468262 -34.080379
v 39.666611 43.331474 -34.080299
v -13.309624 42.907444 -34.079720
v 44.704170 9.060450 106.261574
v -36.723003 9.034836 106.390167
v -35.912075 9.032608 1.006206
v 44.704170 9.060450 1.006206
v 44.704170 9.060450 -104.258469
v -36.723003 9.034836 -104.377708
v -32.180569 7.860853 -104.734421
v -32.218632 7.899814 -118.859657
v -52.022724 92.510880 108.012512
v -42.815269 68.930328 131.944412
v -47.997528 85.021210 127.037544
v -45.991817 48.170109 108.896622
v -52.000381 92.511215 64.478691
v -43.017487 73.446571 134.953033
v -44.628223 79.115677 136.411804
v -45.781048 83.468170 135.681885
v -47.063747 88.888290 132.146790
v -47.909847 92.147469 127.040169
v -48.584118 94.510185 120.685425
v -48.861103 96.710556 107.958641
v -48.863129 97.662506 64.656181
v -48.979748 97.655983 1.006206
v -52.033161 92.541580 1.006206
v -35.912075 9.032608 1.006206
v -36.723003 9.034836 106.390167
v -38.456169 28.708286 128.854095
v -35.563580 7.405664 122.471931
v -36.362164 7.232693 106.551064
v -41.158890 45.333595 129.126236
v -40.814976 48.062408 136.168701
v -41.136265 54.564251 140.361298
v -42.144451 61.462902 140.081650
v -42.668510 67.195229 135.573166
v -11.231723 45.983284 -27.276506
v 13.313782 46.462025 -27.893183
v -13.309624 42.907444 -34.079720
v -9.097081 48.312172 -17.714783
v 14.089447 48.444954 -17.530727
v -9.097081 48.312172 19.717533
v 41.283493 45.906044 -28.172554
v 14.089447 48.444954 19.533480
v 13.313782 46.462025 29.896019
v 42.222115 47.001255 19.362247
v 42.222115 47.001255 -17.359598
v 47.851807 42.242027 -28.350491
v 44.853130 40.468262 -34.080379
v 39.666611 43.331474 -34.080299
v 50.546837 42.561810 -17.140224
v 41.283493 45.906044 30.175119
v 50.546837 42.561810 19.142963
v 47.851807 42.242027 30.353148
v 44.853130 40.468262 36.093193
v 39.666611 43.331474 36.092907
v -13.309624 42.907444 36.091759
v -11.231723 45.983284 29.279160
v 44.593575 22.874851 -104.087242
v 44.593575 22.874851 -34.079994
v 44.704170 9.060450 -104.258469
v 44.704170 9.060450 1.006206
v 44.593575 22.874851 36.092415
v 44.704170 9.060450 106.261574
v 44.593575 22.874849 105.772385
v -20.951754 7.850179 -118.928986
v -31.331396 0.002371 -116.253555
v -32.218632 7.899814 -118.859657
v 49.111477 36.139050 -97.770737
v 44.593575 22.874851 -104.087242
v 51.330265 36.263538 -87.247658
v 51.330265 36.263538 -51.095005
v 49.111477 36.139050 -40.231888
v 44.593575 22.874851 -34.079994
v 44.593575 22.874851 -104.087242
v 43.599480 28.571980 -121.073639
v 44.853130 40.468262 -102.965469
v 44.747807 7.558468 -119.524475
v 44.704170 9.060450 -104.258469
v 44.365768 7.323977 -104.456879
v 46.059334 56.239838 -118.584991
v 43.820599 49.086590 -127.853302
v 43.373199 55.118614 -130.993729
v 43.987381 61.933670 -130.271606
v 44.354816 66.415886 -125.906723
v 43.864506 68.126770 -118.839157
v 43.804214 67.613731 -110.746742
v 42.631733 64.099380 -103.860115
v 44.474258 51.412399 -102.571449
v 44.726139 46.317490 -121.183922
v 44.593575 22.874849 105.772385
v 44.593575 22.874851 36.092415
v 51.216232 36.263538 53.107449
v 49.111477 36.139050 42.244320
v 51.216232 36.263538 89.234314
v 49.111477 36.139050 99.527817
v -42.815269 68.930328 -129.932022
v -52.022724 92.510880 -106.000137
v -47.997528 85.021210 -125.025108
v -43.017487 73.446571 -132.940598
v -44.628223 79.115677 -134.399338
v -45.781048 83.468170 -133.669525
v -47.063747 88.888290 -130.134369
v -47.909847 92.147469 -125.027679
v -48.584118 94.510185 -118.672920
v -48.861103 96.710556 -105.946228
v -52.000381 92.511215 -62.466267
v -48.863129 97.662506 -62.643772
v -48.979748 97.655983 1.006206
v -52.033161 92.541580 1.006206
v -35.912075 9.032608 1.006206
v -45.991817 48.170109 -106.884193
v -36.723003 9.034836 -104.377708
v -38.456169 28.708286 -126.841690
v -35.563580 7.405664 -120.459534
v -36.362164 7.232693 -104.538589
v -41.158890 45.333595 -127.113785
v -40.814976 48.062408 -134.156342
v -41.136265 54.564251 -138.348969
v -42.144451 61.462902 -138.069290
v -42.668510 67.195229 -133.560791
v 38.159172 55.258923 -132.311737
v -40.814976 48.062408 -134.156342
v -41.136265 54.564251 -138.348969
v 38.159454 62.795525 -132.163879
v -42.144451 61.462902 -138.069290
v -31.202393 68.465622 -132.645050
v -42.668510 67.195229 -133.560791
v -33.701912 70.219467 -128.462479
v -42.815269 68.930328 -129.932022
v 38.159763 68.416847 -126.961311
v -24.798460 71.776154 -124.477707
v 37.945446 71.210442 -119.243988
v 44.354816 66.415886 -125.906723
v 43.987381 61.933670 -130.271606
v 43.373199 55.118614 -130.993729
v 38.134251 48.665249 -129.218048
v 43.820599 49.086590 -127.853302
v 38.133106 45.249603 -122.664940
v 44.726139 46.317490 -121.183922
v 43.599480 28.571980 -121.073639
v 38.151596 28.677757 -122.673897
v -38.456169 28.708286 -126.841690
v -41.158890 45.333595 -127.113785
v 44.853130 40.468262 -102.965469
v 44.474258 51.412399 -102.571449
v 39.666611 43.331474 -102.822746
v 37.869339 52.269753 -101.524940
v -13.309624 42.907444 -104.259117
v -14.873993 52.796036 -103.579811
v 37.819798 66.012726 -103.455704
v -18.308855 66.393890 -105.941238
v 38.054909 70.698494 -110.873665
v -20.451164 70.997429 -113.122894
v 43.864506 68.126770 -118.839157
v 43.804214 67.613731 -110.746742
v 42.631733 64.099380 -103.860115
v 49.111477 36.139050 -27.938066
v 44.593575 22.874851 -34.079994
v 51.782646 36.263538 -17.074944
v 51.782646 36.263538 19.077797
v 49.111477 36.139050 29.940811
v 44.593575 22.874851 36.092415
v 44.747807 7.558468 121.330109
v 44.365768 7.323978 106.469246
v 44.704170 9.060450 106.261574
v 44.593575 22.874849 105.772385
v 43.599480 28.571980 123.626587
v 44.853130 40.468262 104.918190
v 44.726139 46.317490 124.767471
v 46.059334 56.239838 122.524376
v 43.820599 49.086590 132.022186
v 43.373199 55.118614 135.441406
v 43.987381 61.933670 134.719360
v 44.354816 66.415886 130.114685
v 43.864506 68.126770 122.443970
v 43.804214 67.613731 113.609451
v 42.877716 64.099380 106.207588
v 44.474258 51.412399 104.877716
v -21.765474 -0.295640 117.913826
v -31.331396 0.002371 118.265915
v -31.472576 -0.257279 107.296173
v -36.723003 9.034836 106.390167
v -21.838421 -0.180493 107.153633
v 39.180111 -0.295640 117.913826
v 39.996311 7.862305 106.674942
v 39.993828 7.850179 120.734627
v -32.180569 7.860853 106.746895
v -31.472576 -0.257279 107.296173
v 39.107170 -0.180493 107.153633
v -20.949266 7.862305 106.674942
v 29.614189 0.002370 118.265915
v -32.180569 7.860853 106.746895
v -32.218632 7.899814 120.872093
v 28.726969 7.899814 120.712219
v 29.614189 0.002370 118.265915
v 28.765007 7.860854 106.746895
v 29.473011 -0.257279 107.296173
v -31.331396 0.002371 118.265915
v -20.951754 7.850179 120.941429
v -32.218632 7.899814 120.872093
v 28.726969 7.899814 120.712219
v 28.765007 7.860854 106.746895
v 29.473011 -0.257279 107.296173
v 39.180111 -0.295641 -115.901329
v 29.473011 -0.257280 -105.283691
v 29.614189 0.002370 -116.253555
v 39.107170 -0.180494 -105.141205
v 44.704170 9.060450 -104.258469
v 28.765007 7.860853 -104.734421
v 29.473011 -0.257280 -105.283691
v -36.723003 9.034836 -104.377708
v 39.996311 7.862305 -104.662506
v 39.993828 7.850179 -118.928986
v 28.765007 7.860853 -104.734421
v 28.726969 7.899814 -118.859657
v 29.614189 0.002370 -116.253555
v 28.726969 7.899814 -118.859657
vt 0.982910 0.956421 0.000000
vt 0.718262 0.964203 0.000000
vt 0.986328 0.979706 0.000000
vt 0.145264 0.343262 0.000000
vt 0.200195 0.368164 0.000000
vt 0.165894 0.373047 0.000000
vt 0.140869 0.382813 0.000000
vt 0.380127 0.196777 0.000000
vt 0.408203 0.240234 0.000000
vt 0.376465 0.255371 0.000000
vt 0.394775 0.338867 0.000000
vt 0.367188 0.332031 0.000000
vt 0.361816 0.393066 0.000000
vt 0.327881 0.382324 0.000000
vt 0.299805 0.318359 0.000000
vt 0.202393 0.311523 0.000000
vt 0.138672 0.286133 0.000000
vt 0.303223 0.247070 0.000000
vt 0.384277 0.406738 0.000000
vt 0.311768 0.192383 0.000000
vt 0.208496 0.240723 0.000000
vt 0.226440 0.187500 0.000000
vt 0.237671 0.151367 0.000000
vt 0.315674 0.156738 0.000000
vt 0.257324 0.117676 0.000000
vt 0.319092 0.125000 0.000000
vt 0.382568 0.161621 0.000000
vt 0.176392 0.115234 0.000000
vt 0.164063 0.079590 0.000000
vt 0.313721 0.081543 0.000000
vt 0.385986 0.128418 0.000000
vt 0.409912 0.157715 0.000000
vt 0.409668 0.181641 0.000000
vt 0.526855 0.078613 0.000000
vt 0.432129 0.129395 0.000000
vt 0.129883 0.179688 0.000000
vt 0.169800 0.180664 0.000000
vt 0.160400 0.215332 0.000000
vt 0.126831 0.202637 0.000000
vt 0.107483 0.190918 0.000000
vt 0.121094 0.148926 0.000000
vt 0.172241 0.147949 0.000000
vt 0.125610 0.120117 0.000000
vt 0.114197 0.086426 0.000000
vt 0.084656 0.097656 0.000000
vt 0.068054 0.199707 0.000000
vt 0.086548 0.169922 0.000000
vt 0.100952 0.128906 0.000000
vt 0.077271 0.144043 0.000000
vt 0.064453 0.162109 0.000000
vt 0.059784 0.114258 0.000000
vt 0.037689 0.138184 0.000000
vt 0.025787 0.158691 0.000000
vt 0.043976 0.196777 0.000000
vt 0.053192 0.176758 0.000000
vt 0.016891 0.185059 0.000000
vt 0.036591 0.219238 0.000000
vt 0.071655 0.235352 0.000000
vt 0.089783 0.214355 0.000000
vt 0.007996 0.205078 0.000000
vt 0.145264 0.246094 0.000000
vt 0.113281 0.260742 0.000000
vt 0.110596 0.231934 0.000000
vt 0.608887 0.801514 0.000000
vt 0.614746 0.894043 0.000000
vt 0.645508 0.800537 0.000000
vt 0.653809 0.893555 0.000000
vt 0.608398 0.776001 0.000000
vt 0.488770 0.775513 0.000000
vt 0.644531 0.775879 0.000000
vt 0.669434 0.774902 0.000000
vt 0.670410 0.799316 0.000000
vt 0.689941 0.984703 0.000000
vt 0.660156 0.979904 0.000000
vt 0.621094 0.975510 0.000000
vt 0.475098 0.975403 0.000000
vt 0.481689 0.892944 0.000000
vt 0.488281 0.801025 0.000000
vt 0.451660 0.800293 0.000000
vt 0.442871 0.892456 0.000000
vt 0.435791 0.979401 0.000000
vt 0.405518 0.984009 0.000000
vt 0.427002 0.799072 0.000000
vt 0.427734 0.774902 0.000000
vt 0.452637 0.775513 0.000000
vt 0.051086 0.357422 0.000000
vt 0.083374 0.395020 0.000000
vt 0.083069 0.356445 0.000000
vt 0.958496 0.899902 0.000000
vt 0.718262 0.964203 0.000000
vt 0.719238 0.907654 0.000000
vt 0.982910 0.956421 0.000000
vt 0.979980 0.903259 0.000000
vt 0.051178 0.395508 0.000000
vt 0.745605 0.178223 0.000000
vt 0.850586 0.224609 0.000000
vt 0.742676 0.223633 0.000000
vt 0.710449 0.222168 0.000000
vt 0.716309 0.159668 0.000000
vt 0.712402 0.332031 0.000000
vt 0.743652 0.328613 0.000000
vt 0.849609 0.331055 0.000000
vt 0.959961 0.225098 0.000000
vt 0.958008 0.179688 0.000000
vt 0.851074 0.178223 0.000000
vt 0.745117 0.141602 0.000000
vt 0.718750 0.137695 0.000000
vt 0.740723 0.108398 0.000000
vt 0.957520 0.330566 0.000000
vt 0.961426 0.109863 0.000000
vt 0.851563 0.106445 0.000000
vt 0.851563 0.062012 0.000000
vt 0.851074 0.139648 0.000000
vt 0.958984 0.143066 0.000000
vt 0.987305 0.161621 0.000000
vt 0.992676 0.224121 0.000000
vt 0.985352 0.139648 0.000000
vt 0.988770 0.333984 0.000000
vt 0.958496 0.396973 0.000000
vt 0.920410 0.387695 0.000000
vt 0.778320 0.386719 0.000000
vt 0.742188 0.395508 0.000000
vt 0.715820 0.408203 0.000000
vt 0.984863 0.410156 0.000000
vt 0.023087 0.434570 0.000000
vt 0.056274 0.427246 0.000000
vt 0.958984 0.813110 0.000000
vt 0.719238 0.907654 0.000000
vt 0.958496 0.899902 0.000000
vt 0.978027 0.814819 0.000000
vt 0.979980 0.903259 0.000000
vt 0.985840 0.740234 0.000000
vt 0.962402 0.742676 0.000000
vt 0.708008 0.816772 0.000000
vt 0.749512 0.595215 0.000000
vt 0.953613 0.624756 0.000000
vt 0.952148 0.593018 0.000000
vt 0.976563 0.626953 0.000000
vt 0.954102 0.653809 0.000000
vt 0.975098 0.654053 0.000000
vt 0.956543 0.683838 0.000000
vt 0.974609 0.684326 0.000000
vt 0.958496 0.712891 0.000000
vt 0.977539 0.712646 0.000000
vt 0.685547 0.634277 0.000000
vt 0.719727 0.611572 0.000000
vt 0.684570 0.619141 0.000000
vt 0.728516 0.627930 0.000000
vt 0.692383 0.664307 0.000000
vt 0.696289 0.693848 0.000000
vt 0.698242 0.724854 0.000000
vt 0.697754 0.750977 0.000000
vt 0.017487 0.397461 0.000000
vt 0.980469 0.522705 0.000000
vt 0.984375 0.468750 0.000000
vt 0.961426 0.470215 0.000000
vt 0.955078 0.525635 0.000000
vt 0.953125 0.560059 0.000000
vt 0.976563 0.557617 0.000000
vt 0.977051 0.594727 0.000000
vt 0.989258 0.422363 0.000000
vt 0.970703 0.433105 0.000000
vt 0.793945 0.421875 0.000000
vt 0.786133 0.463379 0.000000
vt 0.772461 0.521729 0.000000
vt 0.764160 0.553955 0.000000
vt 0.145264 0.343262 0.000000
vt 0.140869 0.382813 0.000000
vt 0.165894 0.373047 0.000000
vt 0.200195 0.368164 0.000000
vt 0.202393 0.311523 0.000000
vt 0.138672 0.286133 0.000000
vt 0.208496 0.240723 0.000000
vt 0.145264 0.246094 0.000000
vt 0.160400 0.215332 0.000000
vt 0.126831 0.202637 0.000000
vt 0.110596 0.231934 0.000000
vt 0.113281 0.260742 0.000000
vt 0.071655 0.235352 0.000000
vt 0.089783 0.214355 0.000000
vt 0.107483 0.190918 0.000000
vt 0.129883 0.179688 0.000000
vt 0.169800 0.180664 0.000000
vt 0.226440 0.187500 0.000000
vt 0.303223 0.247070 0.000000
vt 0.311768 0.192383 0.000000
vt 0.380127 0.196777 0.000000
vt 0.376465 0.255371 0.000000
vt 0.299805 0.318359 0.000000
vt 0.367188 0.332031 0.000000
vt 0.382568 0.161621 0.000000
vt 0.409668 0.181641 0.000000
vt 0.408203 0.240234 0.000000
vt 0.394775 0.338867 0.000000
vt 0.361816 0.393066 0.000000
vt 0.327881 0.382324 0.000000
vt 0.384277 0.406738 0.000000
vt 0.315674 0.156738 0.000000
vt 0.319092 0.125000 0.000000
vt 0.385986 0.128418 0.000000
vt 0.312744 0.081543 0.000000
vt 0.525879 0.078613 0.000000
vt 0.431152 0.129395 0.000000
vt 0.408936 0.157715 0.000000
vt 0.257324 0.117676 0.000000
vt 0.164063 0.079590 0.000000
vt 0.176392 0.115234 0.000000
vt 0.237671 0.151367 0.000000
vt 0.172241 0.147949 0.000000
vt 0.121094 0.148926 0.000000
vt 0.125610 0.120117 0.000000
vt 0.068054 0.199707 0.000000
vt 0.086548 0.169922 0.000000
vt 0.100952 0.128906 0.000000
vt 0.084656 0.097656 0.000000
vt 0.114197 0.086426 0.000000
vt 0.043976 0.196777 0.000000
vt 0.036591 0.219238 0.000000
vt 0.053192 0.176758 0.000000
vt 0.064453 0.162109 0.000000
vt 0.059784 0.114258 0.000000
vt 0.077271 0.144043 0.000000
vt 0.037689 0.138184 0.000000
vt 0.025787 0.158691 0.000000
vt 0.016891 0.185059 0.000000
vt 0.007996 0.205078 0.000000
vt 0.614746 0.894043 0.000000
vt 0.608887 0.801514 0.000000
vt 0.645508 0.800537 0.000000
vt 0.481689 0.892944 0.000000
vt 0.488281 0.801025 0.000000
vt 0.451660 0.800293 0.000000
vt 0.442871 0.892456 0.000000
vt 0.475098 0.975403 0.000000
vt 0.435791 0.979401 0.000000
vt 0.621094 0.975510 0.000000
vt 0.653809 0.893555 0.000000
vt 0.670410 0.799316 0.000000
vt 0.669434 0.774902 0.000000
vt 0.644531 0.775879 0.000000
vt 0.689941 0.984703 0.000000
vt 0.660156 0.979904 0.000000
vt 0.608398 0.776001 0.000000
vt 0.488770 0.775513 0.000000
vt 0.452637 0.775513 0.000000
vt 0.427734 0.774902 0.000000
vt 0.427002 0.799072 0.000000
vt 0.405518 0.984009 0.000000
vt 0.425049 0.159180 0.000000
vt 0.424316 0.361816 0.000000
vt 0.697754 0.360352 0.000000
vt 0.698242 0.159668 0.000000
vt 0.425049 0.159180 0.000000
vt 0.424316 0.361816 0.000000
vt 0.117371 0.395996 0.000000
vt 0.115784 0.346191 0.000000
vt 0.036896 0.610596 0.000000
vt 0.134644 0.521973 0.000000
vt 0.066040 0.542480 0.000000
vt 0.220825 0.605225 0.000000
vt 0.035797 0.762329 0.000000
vt 0.115540 0.511475 0.000000
vt 0.090942 0.507813 0.000000
vt 0.072449 0.511230 0.000000
vt 0.049896 0.524414 0.000000
vt 0.036499 0.542969 0.000000
vt 0.026886 0.565674 0.000000
vt 0.016693 0.610107 0.000000
vt 0.012093 0.761719 0.000000
vt 0.012215 0.984131 0.000000
vt 0.035706 0.984131 0.000000
vt 0.389160 0.982864 0.000000
vt 0.387451 0.611572 0.000000
vt 0.304688 0.533203 0.000000
vt 0.394531 0.555664 0.000000
vt 0.395020 0.612061 0.000000
vt 0.234497 0.532227 0.000000
vt 0.222900 0.507324 0.000000
vt 0.195679 0.492188 0.000000
vt 0.166382 0.493652 0.000000
vt 0.142090 0.509033 0.000000
vt 0.645996 0.674316 0.000000
vt 0.647461 0.590820 0.000000
vt 0.669434 0.682129 0.000000
vt 0.610840 0.667725 0.000000
vt 0.609863 0.589355 0.000000
vt 0.477051 0.667725 0.000000
vt 0.648926 0.496582 0.000000
vt 0.477783 0.589355 0.000000
vt 0.440186 0.590820 0.000000
vt 0.478027 0.495605 0.000000
vt 0.609375 0.495605 0.000000
vt 0.647949 0.470703 0.000000
vt 0.666992 0.470215 0.000000
vt 0.668457 0.498535 0.000000
vt 0.608398 0.470215 0.000000
vt 0.438965 0.496582 0.000000
vt 0.479004 0.470215 0.000000
vt 0.439697 0.470703 0.000000
vt 0.417725 0.468262 0.000000
vt 0.416260 0.497070 0.000000
vt 0.415283 0.680420 0.000000
vt 0.441406 0.674316 0.000000
vt 0.011299 0.069824 0.000000
vt 0.258789 0.069824 0.000000
vt 0.011299 0.011719 0.000000
vt 0.382568 0.011719 0.000000
vt 0.506348 0.069336 0.000000
vt 0.753906 0.011719 0.000000
vt 0.753906 0.069336 0.000000
vt 0.016891 0.347168 0.000000
vt 0.061096 0.327148 0.000000
vt 0.030289 0.312012 0.000000
vt 0.644531 0.752197 0.000000
vt 0.671387 0.695557 0.000000
vt 0.608887 0.750977 0.000000
vt 0.488525 0.750122 0.000000
vt 0.451904 0.751831 0.000000
vt 0.423828 0.696045 0.000000
vt 0.201050 0.408691 0.000000
vt 0.226807 0.484863 0.000000
vt 0.274414 0.406738 0.000000
vt 0.138428 0.464355 0.000000
vt 0.143311 0.410156 0.000000
vt 0.135986 0.411133 0.000000
vt 0.342285 0.474121 0.000000
vt 0.313232 0.510742 0.000000
vt 0.338867 0.522217 0.000000
vt 0.367432 0.518311 0.000000
vt 0.385742 0.501709 0.000000
vt 0.392334 0.473633 0.000000
vt 0.389404 0.439941 0.000000
vt 0.373535 0.410645 0.000000
vt 0.320313 0.405762 0.000000
vt 0.301025 0.484375 0.000000
vt 0.671387 0.695557 0.000000
vt 0.423828 0.696045 0.000000
vt 0.488525 0.750122 0.000000
vt 0.451904 0.751831 0.000000
vt 0.608887 0.750977 0.000000
vt 0.644531 0.752197 0.000000
vt 0.134644 0.521973 0.000000
vt 0.036896 0.610596 0.000000
vt 0.066040 0.542480 0.000000
vt 0.115540 0.511475 0.000000
vt 0.090942 0.507813 0.000000
vt 0.072449 0.511230 0.000000
vt 0.049896 0.524414 0.000000
vt 0.036499 0.542969 0.000000
vt 0.026886 0.565674 0.000000
vt 0.016693 0.610107 0.000000
vt 0.035797 0.762329 0.000000
vt 0.012093 0.761719 0.000000
vt 0.012215 0.985245 0.000000
vt 0.035706 0.985245 0.000000
vt 0.389160 0.983978 0.000000
vt 0.220825 0.605225 0.000000
vt 0.387451 0.612793 0.000000
vt 0.304688 0.533203 0.000000
vt 0.394531 0.555664 0.000000
vt 0.395020 0.612061 0.000000
vt 0.234497 0.532227 0.000000
vt 0.222900 0.507324 0.000000
vt 0.195679 0.492188 0.000000
vt 0.166382 0.493652 0.000000
vt 0.142090 0.509033 0.000000
vt 0.956543 0.683838 0.000000
vt 0.698242 0.724854 0.000000
vt 0.696289 0.693848 0.000000
vt 0.954102 0.653809 0.000000
vt 0.692383 0.664307 0.000000
vt 0.728516 0.627930 0.000000
vt 0.685547 0.634277 0.000000
vt 0.719727 0.611572 0.000000
vt 0.684570 0.619141 0.000000
vt 0.953613 0.624756 0.000000
vt 0.749512 0.595215 0.000000
vt 0.952148 0.593018 0.000000
vt 0.976563 0.626953 0.000000
vt 0.975098 0.654053 0.000000
vt 0.974609 0.684326 0.000000
vt 0.958496 0.712891 0.000000
vt 0.977539 0.712646 0.000000
vt 0.962402 0.742676 0.000000
vt 0.985840 0.740234 0.000000
vt 0.978027 0.814819 0.000000
vt 0.958984 0.813110 0.000000
vt 0.708008 0.816772 0.000000
vt 0.697754 0.750977 0.000000
vt 0.989258 0.422363 0.000000
vt 0.984375 0.468750 0.000000
vt 0.970703 0.433105 0.000000
vt 0.961426 0.470215 0.000000
vt 0.793945 0.421875 0.000000
vt 0.786133 0.463379 0.000000
vt 0.955078 0.525635 0.000000
vt 0.772461 0.521729 0.000000
vt 0.953125 0.560059 0.000000
vt 0.764160 0.553955 0.000000
vt 0.977051 0.594727 0.000000
vt 0.976563 0.557617 0.000000
vt 0.980469 0.522705 0.000000
vt 0.646973 0.445801 0.000000
vt 0.666504 0.391113 0.000000
vt 0.608398 0.445313 0.000000
vt 0.479248 0.445313 0.000000
vt 0.440674 0.445801 0.000000
vt 0.418213 0.389160 0.000000
vt 0.138428 0.464355 0.000000
vt 0.135986 0.411133 0.000000
vt 0.143311 0.410156 0.000000
vt 0.201050 0.408691 0.000000
vt 0.226807 0.484863 0.000000
vt 0.274414 0.406738 0.000000
vt 0.301025 0.484375 0.000000
vt 0.342285 0.474121 0.000000
vt 0.313232 0.510742 0.000000
vt 0.338867 0.522217 0.000000
vt 0.367432 0.518311 0.000000
vt 0.385742 0.501709 0.000000
vt 0.392334 0.473633 0.000000
vt 0.389404 0.439941 0.000000
vt 0.373535 0.410645 0.000000
vt 0.320313 0.405762 0.000000
vt 0.051086 0.357422 0.000000
vt 0.083069 0.356445 0.000000
vt 0.083374 0.395020 0.000000
vt 0.714844 0.987701 0.000000
vt 0.051178 0.395508 0.000000
vt 0.051086 0.357422 0.000000
vt 0.017487 0.397461 0.000000
vt 0.016891 0.347168 0.000000
vt 0.023087 0.434570 0.000000
vt 0.056274 0.427246 0.000000
vt 0.051178 0.395508 0.000000
vt 0.017487 0.397461 0.000000
vt 0.061096 0.327148 0.000000
vt 0.117371 0.395996 0.000000
vt 0.115784 0.346191 0.000000
vt 0.030289 0.312012 0.000000
vt 0.083069 0.356445 0.000000
vt 0.117371 0.395996 0.000000
vt 0.083374 0.395020 0.000000
vt 0.061096 0.327148 0.000000
vt 0.016891 0.347168 0.000000
vt 0.030289 0.312012 0.000000
vt 0.115784 0.346191 0.000000
vt 0.023087 0.434570 0.000000
vt 0.056274 0.427246 0.000000
vt 0.051086 0.357422 0.000000
vt 0.083374 0.395020 0.000000
vt 0.083069 0.356445 0.000000
vt 0.051178 0.395508 0.000000
vt 0.986328 0.979706 0.000000
vt 0.023087 0.434570 0.000000
vt 0.056274 0.427246 0.000000
vt 0.714844 0.987701 0.000000
vt 0.017487 0.397461 0.000000
vt 0.016891 0.347168 0.000000
vt 0.117371 0.395996 0.000000
vt 0.115784 0.346191 0.000000
vt 0.061096 0.327148 0.000000
vt 0.030289 0.312012 0.000000
usemtl Material_1
f 1/1 2/2 3/3
f 4/4 5/5 6/6
f 4/4 6/6 7/7
f 8/8 9/9 10/10
f 11/11 10/10 9/9
f 10/10 11/11 12/12
f 11/11 13/13 12/12
f 14/14 12/12 13/13
f 15/15 12/12 14/14
f 5/5 15/15 14/14
f 15/15 5/5 16/16
f 4/4 16/16 5/5
f 17/17 16/16 4/4
f 16/16 18/18 15/15
f 11/11 19/19 13/13
f 8/8 18/18 20/20
f 18/18 8/8 10/10
f 10/10 15/15 18/18
f 15/15 10/10 12/12
f 18/18 16/16 21/21
f 22/22 18/18 21/21
f 22/22 20/20 18/18
f 20/20 22/22 23/23
f 20/20 23/23 24/24
f 25/25 24/24 23/23
f 24/24 25/25 26/26
f 27/27 24/24 26/26
f 8/8 24/24 27/27
f 8/8 20/20 24/24
f 23/23 28/28 25/25
f 25/25 28/28 29/29
f 29/29 30/30 25/25
f 25/25 30/30 26/26
f 31/31 26/26 30/30
f 27/27 26/26 31/31
f 32/32 27/27 31/31
f 33/33 27/27 32/32
f 33/33 8/8 27/27
f 9/9 8/8 33/33
f 30/30 34/34 31/31
f 31/31 34/34 35/35
f 32/32 31/31 35/35
f 36/36 37/37 38/38
f 36/36 38/38 39/39
f 36/36 39/39 40/40
f 41/41 36/36 40/40
f 41/41 42/42 36/36
f 43/43 42/42 41/41
f 42/42 43/43 28/28
f 43/43 29/29 28/28
f 29/29 43/43 44/44
f 43/43 45/45 44/44
f 40/40 46/46 47/47
f 40/40 47/47 41/41
f 41/41 47/47 48/48
f 41/41 48/48 43/43
f 49/49 47/47 50/50
f 47/47 49/49 48/48
f 45/45 43/43 48/48
f 48/48 51/51 45/45
f 49/49 51/51 48/48
f 49/49 52/52 51/51
f 50/50 52/52 49/49
f 50/50 53/53 52/52
f 46/46 54/54 55/55
f 46/46 50/50 47/47
f 50/50 46/46 55/55
f 53/53 50/50 55/55
f 55/55 56/56 53/53
f 56/56 55/55 54/54
f 57/57 56/56 54/54
f 54/54 58/58 57/57
f 58/58 54/54 46/46
f 58/58 46/46 59/59
f 46/46 40/40 59/59
f 56/56 57/57 60/60
f 17/17 21/21 16/16
f 21/21 17/17 61/61
f 62/62 61/61 17/17
f 62/62 63/63 61/61
f 63/63 62/62 58/58
f 59/59 63/63 58/58
f 40/40 63/63 59/59
f 63/63 40/40 39/39
f 39/39 61/61 63/63
f 39/39 38/38 61/61
f 21/21 61/61 38/38
f 37/37 21/21 38/38
f 21/21 37/37 22/22
f 22/22 37/37 42/42
f 42/42 23/23 22/22
f 42/42 28/28 23/23
f 37/37 36/36 42/42
f 64/64 65/65 66/66
f 66/66 65/65 67/67
f 68/68 69/69 64/64
f 70/70 68/68 64/64
f 70/70 64/64 66/66
f 70/70 66/66 71/71
f 71/71 66/66 72/72
f 66/66 67/67 72/72
f 73/73 72/72 67/67
f 74/74 73/73 67/67
f 67/67 75/75 74/74
f 65/65 75/75 67/67
f 65/65 76/76 75/75
f 77/77 76/76 65/65
f 64/64 77/77 65/65
f 78/78 77/77 64/64
f 77/77 78/78 79/79
f 79/79 80/80 77/77
f 76/76 77/77 80/80
f 80/80 81/81 76/76
f 81/81 80/80 82/82
f 83/83 82/82 80/80
f 83/83 80/80 79/79
f 79/79 84/84 83/83
f 84/84 79/79 85/85
f 78/78 85/85 79/79
f 85/85 78/78 69/69
f 78/78 64/64 69/69
f 86/86 87/87 88/88
f 89/89 90/90 91/91
f 92/92 90/90 89/89
f 93/93 92/92 89/89
f 94/94 87/87 86/86
f 95/95 96/96 97/97
f 95/95 97/97 98/98
f 98/98 99/99 95/95
f 100/100 98/98 97/97
f 97/97 101/101 100/100
f 97/97 102/102 101/101
f 102/102 97/97 96/96
f 103/103 102/102 96/96
f 96/96 104/104 103/103
f 104/104 96/96 105/105
f 95/95 105/105 96/96
f 105/105 95/95 106/106
f 106/106 95/95 99/99
f 106/106 99/99 107/107
f 108/108 106/106 107/107
f 102/102 103/103 109/109
f 110/110 111/111 112/112
f 108/108 112/112 111/111
f 108/108 111/111 106/106
f 113/113 106/106 111/111
f 105/105 106/106 113/113
f 114/114 105/105 113/113
f 105/105 114/114 104/104
f 115/115 104/104 114/114
f 116/116 104/104 115/115
f 104/104 116/116 103/103
f 115/115 114/114 117/117
f 110/110 117/117 114/114
f 114/114 111/111 110/110
f 114/114 113/113 111/111
f 116/116 118/118 103/103
f 109/109 103/103 118/118
f 119/119 109/109 118/118
f 120/120 109/109 119/119
f 102/102 109/109 120/120
f 102/102 120/120 121/121
f 102/102 121/121 101/101
f 101/101 121/121 122/122
f 101/101 122/122 100/100
f 123/123 100/100 122/122
f 118/118 124/124 119/119
f 94/94 125/125 126/126
f 127/127 128/128 129/129
f 129/129 130/130 127/127
f 130/130 129/129 131/131
f 130/130 132/132 133/133
f 130/130 133/133 127/127
f 134/134 127/127 133/133
f 128/128 127/127 134/134
f 135/135 136/136 137/137
f 138/138 137/137 136/136
f 138/138 136/136 139/139
f 139/139 140/140 138/138
f 141/141 140/140 139/139
f 140/140 141/141 142/142
f 142/142 141/141 143/143
f 144/144 142/142 143/143
f 133/133 144/144 143/143
f 144/144 133/133 132/132
f 145/145 146/146 147/147
f 146/146 145/145 148/148
f 135/135 146/146 148/148
f 148/148 136/136 135/135
f 136/136 148/148 139/139
f 149/149 139/139 148/148
f 139/139 149/149 150/150
f 150/150 141/141 139/139
f 151/151 141/141 150/150
f 141/141 151/151 143/143
f 152/152 143/143 151/151
f 143/143 152/152 133/133
f 133/133 152/152 134/134
f 145/145 149/149 148/148
f 131/131 129/129 1/1
f 2/2 1/1 129/129
f 129/129 128/128 2/2
f 94/94 153/153 125/125
f 154/154 155/155 156/156
f 154/154 156/156 157/157
f 158/158 154/154 157/157
f 154/154 158/158 159/159
f 137/137 159/159 158/158
f 159/159 137/137 160/160
f 137/137 138/138 160/160
f 155/155 161/161 162/162
f 155/155 162/162 156/156
f 162/162 163/163 156/156
f 156/156 163/163 164/164
f 156/156 164/164 157/157
f 157/157 164/164 165/165
f 165/165 158/158 157/157
f 158/158 165/165 166/166
f 158/158 166/166 137/137
f 166/166 135/135 137/137
f 167/167 168/168 169/169
f 170/170 167/167 169/169
f 171/171 167/167 170/170
f 172/172 167/167 171/171
f 173/173 172/172 171/171
f 173/173 174/174 172/172
f 173/173 175/175 174/174
f 176/176 174/174 175/175
f 174/174 176/176 177/177
f 178/178 174/174 177/177
f 177/177 179/179 178/178
f 180/180 179/179 177/177
f 178/178 172/172 174/174
f 177/177 181/181 180/180
f 181/181 177/177 176/176
f 182/182 181/181 176/176
f 176/176 175/175 182/182
f 183/183 182/182 175/175
f 173/173 183/183 175/175
f 183/183 173/173 184/184
f 173/173 185/185 184/184
f 186/186 184/184 185/185
f 187/187 186/186 185/185
f 187/187 185/185 188/188
f 185/185 173/173 171/171
f 185/185 171/171 189/189
f 188/188 185/185 189/189
f 188/188 189/189 190/190
f 191/191 187/187 192/192
f 193/193 192/192 187/187
f 187/187 188/188 193/193
f 194/194 193/193 188/188
f 194/194 188/188 190/190
f 190/190 195/195 194/194
f 190/190 196/196 195/195
f 190/190 189/189 196/196
f 170/170 196/196 189/189
f 189/189 171/171 170/170
f 194/194 195/195 197/197
f 187/187 198/198 186/186
f 198/198 187/187 191/191
f 198/198 191/191 199/199
f 200/200 199/199 191/191
f 199/199 200/200 201/201
f 202/202 201/201 200/200
f 200/200 203/203 202/202
f 204/204 203/203 200/200
f 204/204 200/200 191/191
f 191/191 192/192 204/204
f 198/198 199/199 205/205
f 205/205 199/199 201/201
f 201/201 206/206 205/205
f 207/207 205/205 206/206
f 208/208 205/205 207/207
f 208/208 198/198 205/205
f 208/208 186/186 198/198
f 186/186 208/208 184/184
f 209/209 184/184 208/208
f 184/184 209/209 183/183
f 182/182 183/183 209/209
f 182/182 209/209 210/210
f 182/182 210/210 181/181
f 210/210 209/209 211/211
f 209/209 207/207 211/211
f 209/209 208/208 207/207
f 179/179 180/180 212/212
f 180/180 181/181 212/212
f 181/181 213/213 212/212
f 181/181 210/210 213/213
f 214/214 213/213 210/210
f 210/210 211/211 214/214
f 211/211 215/215 214/214
f 215/215 211/211 216/216
f 211/211 206/206 216/216
f 211/211 207/207 206/206
f 179/179 217/217 218/218
f 217/217 179/179 212/212
f 212/212 219/219 217/217
f 212/212 220/220 219/219
f 212/212 213/213 220/220
f 221/221 214/214 215/215
f 214/214 221/221 222/222
f 213/213 214/214 222/222
f 222/222 220/220 213/213
f 222/222 223/223 220/220
f 224/224 220/220 223/223
f 220/220 224/224 219/219
f 225/225 219/219 224/224
f 219/219 225/225 217/217
f 217/217 225/225 218/218
f 222/222 221/221 223/223
f 225/225 226/226 218/218
f 227/227 228/228 229/229
f 230/230 228/228 227/227
f 228/228 230/230 231/231
f 231/231 230/230 232/232
f 232/232 230/230 233/233
f 233/233 234/234 235/235
f 230/230 234/234 233/233
f 230/230 236/236 234/234
f 236/236 230/230 227/227
f 236/236 227/227 237/237
f 229/229 237/237 227/227
f 238/238 237/237 229/229
f 239/239 238/238 229/229
f 240/240 239/239 229/229
f 228/228 240/240 229/229
f 238/238 241/241 237/237
f 242/242 237/237 241/241
f 237/237 242/242 236/236
f 240/240 228/228 243/243
f 244/244 243/243 228/228
f 244/244 228/228 231/231
f 245/245 244/244 231/231
f 245/245 231/231 232/232
f 246/246 245/245 232/232
f 246/246 232/232 247/247
f 232/232 233/233 247/247
f 248/248 247/247 233/233
f 235/235 248/248 233/233
f 249/249 250/250 251/251
f 252/252 249/249 251/251
f 253/253 252/252 251/251
f 253/253 251/251 254/254
f 255/255 256/256 88/88
f 257/257 258/258 259/259
f 260/260 258/258 257/257
f 260/260 257/257 261/261
f 262/262 259/259 258/258
f 259/259 262/262 263/263
f 259/259 263/263 264/264
f 264/264 265/265 259/259
f 266/266 259/259 265/265
f 259/259 266/266 267/267
f 257/257 259/259 267/267
f 257/257 267/267 268/268
f 268/268 261/261 257/257
f 261/261 268/268 269/269
f 270/270 261/261 269/269
f 261/261 270/270 271/271
f 261/261 271/271 272/272
f 272/272 260/260 261/261
f 260/260 272/272 273/273
f 260/260 273/273 274/274
f 275/275 274/274 273/273
f 275/275 273/273 276/276
f 274/274 277/277 260/260
f 277/277 278/278 260/260
f 278/278 279/279 260/260
f 279/279 280/280 260/260
f 280/280 281/281 260/260
f 281/281 258/258 260/260
f 282/282 283/283 284/284
f 283/283 282/282 285/285
f 285/285 286/286 283/283
f 287/287 286/286 285/285
f 288/288 283/283 286/286
f 289/289 287/287 290/290
f 286/286 287/287 289/289
f 291/291 286/286 289/289
f 292/292 286/286 291/291
f 286/286 292/292 288/288
f 292/292 293/293 288/288
f 294/294 288/288 293/293
f 288/288 294/294 295/295
f 295/295 283/283 288/288
f 295/295 284/284 283/283
f 293/293 292/292 296/296
f 291/291 289/289 297/297
f 297/297 289/289 290/290
f 292/292 291/291 296/296
f 298/298 296/296 291/291
f 299/299 298/298 291/291
f 299/299 291/291 297/297
f 299/299 297/297 300/300
f 300/300 297/297 301/301
f 297/297 290/290 301/301
f 302/302 301/301 290/290
f 303/303 302/302 290/290
f 290/290 287/287 303/303
f 88/88 87/87 255/255
f 304/304 305/305 306/306
f 307/307 306/306 305/305
f 307/307 305/305 308/308
f 309/309 307/307 308/308
f 308/308 310/310 309/309
f 311/311 312/312 313/313
f 314/314 315/315 239/239
f 240/240 314/314 239/239
f 240/240 316/316 314/314
f 316/316 240/240 243/243
f 244/244 316/316 243/243
f 316/316 244/244 317/317
f 244/244 318/318 317/317
f 319/319 317/317 318/318
f 318/318 246/246 319/319
f 245/245 246/246 318/318
f 244/244 245/245 318/318
f 319/319 315/315 317/317
f 317/317 315/315 316/316
f 315/315 314/314 316/316
f 311/311 86/86 312/312
f 320/320 321/321 322/322
f 320/320 323/323 321/321
f 323/323 320/320 324/324
f 323/323 324/324 325/325
f 326/326 327/327 328/328
f 326/326 328/328 329/329
f 330/330 326/326 329/329
f 326/326 330/330 331/331
f 332/332 326/326 331/331
f 326/326 332/332 333/333
f 326/326 333/333 334/334
f 322/322 326/326 334/334
f 326/326 322/322 335/335
f 321/321 335/335 322/322
f 335/335 327/327 326/326
f 153/153 94/94 86/86
f 336/336 337/337 338/338
f 337/337 339/339 338/338
f 339/339 337/337 84/84
f 85/85 339/339 84/84
f 69/69 339/339 85/85
f 339/339 69/69 338/338
f 68/68 338/338 69/69
f 338/338 68/68 340/340
f 70/70 340/340 68/68
f 340/340 70/70 341/341
f 70/70 71/71 341/341
f 341/341 71/71 336/336
f 336/336 340/340 341/341
f 336/336 338/338 340/340
f 342/342 343/343 344/344
f 344/344 345/345 342/342
f 345/345 344/344 346/346
f 346/346 344/344 347/347
f 347/347 344/344 348/348
f 349/349 348/348 344/344
f 344/344 350/350 349/349
f 344/344 343/343 350/350
f 350/350 343/343 351/351
f 352/352 351/351 343/343
f 351/351 352/352 353/353
f 352/352 354/354 353/353
f 354/354 352/352 355/355
f 352/352 356/356 355/355
f 356/356 352/352 357/357
f 357/357 358/358 356/356
f 358/358 357/357 359/359
f 358/358 359/359 360/360
f 360/360 361/361 358/358
f 359/359 357/357 362/362
f 362/362 357/357 363/363
f 363/363 357/357 364/364
f 364/364 357/357 365/365
f 365/365 357/357 366/366
f 366/366 357/357 342/342
f 357/357 343/343 342/342
f 357/357 352/352 343/343
f 311/311 153/153 86/86
f 367/367 368/368 369/369
f 369/369 370/370 367/367
f 370/370 369/369 371/371
f 370/370 371/371 372/372
f 373/373 372/372 371/371
f 372/372 373/373 374/374
f 374/374 373/373 375/375
f 370/370 372/372 376/376
f 376/376 372/372 377/377
f 377/377 372/372 374/374
f 377/377 378/378 376/376
f 378/378 379/379 376/376
f 379/379 370/370 376/376
f 370/370 379/379 380/380
f 380/380 367/367 370/370
f 380/380 381/381 367/367
f 381/381 382/382 367/367
f 383/383 382/382 381/381
f 384/384 382/382 383/383
f 383/383 385/385 384/384
f 386/386 384/384 385/385
f 384/384 386/386 387/387
f 386/386 89/89 387/387
f 89/89 91/91 387/387
f 387/387 91/91 388/388
f 387/387 388/388 384/384
f 384/384 388/388 389/389
f 389/389 382/382 384/384
f 382/382 389/389 368/368
f 368/368 367/367 382/382
f 386/386 93/93 89/89
f 390/390 391/391 392/392
f 392/392 391/391 393/393
f 394/394 392/392 393/393
f 393/393 395/395 394/394
f 396/396 395/395 393/393
f 395/395 396/396 397/397
f 397/397 396/396 398/398
f 398/398 399/399 397/397
f 378/378 399/399 398/398
f 378/378 377/377 399/399
f 379/379 378/378 400/400
f 400/400 378/378 398/398
f 401/401 400/400 398/398
f 398/398 402/402 401/401
f 402/402 398/398 396/396
f 396/396 393/393 402/402
f 391/391 402/402 393/393
f 296/296 403/403 293/293
f 293/293 403/403 294/294
f 403/403 404/404 294/294
f 404/404 403/403 405/405
f 406/406 404/404 405/405
f 405/405 298/298 406/406
f 298/298 407/407 406/406
f 298/298 299/299 407/407
f 299/299 300/300 407/407
f 407/407 300/300 408/408
f 408/408 406/406 407/407
f 404/404 406/406 408/408
f 298/298 405/405 296/296
f 403/403 296/296 405/405
f 409/409 410/410 411/411
f 412/412 409/409 411/411
f 412/412 413/413 409/409
f 412/412 414/414 413/413
f 413/413 414/414 415/415
f 416/416 415/415 414/414
f 415/415 416/416 417/417
f 417/417 416/416 418/418
f 416/416 419/419 418/418
f 416/416 420/420 419/419
f 420/420 416/416 421/421
f 422/422 421/421 416/416
f 416/416 423/423 422/422
f 416/416 424/424 423/423
f 414/414 424/424 416/416
f 425/425 426/426 427/427
f 3/3 2/2 428/428
f 429/429 425/425 427/427
f 430/430 431/431 432/432
f 433/433 429/429 434/434
f 431/431 430/430 435/435
f 429/429 433/433 436/436
f 432/432 437/437 430/430
f 438/438 426/426 439/439
f 437/437 432/432 440/440
f 426/426 438/438 427/427
f 441/441 442/442 443/443
f 444/444 445/445 446/446
f 442/442 441/441 447/447
f 445/445 444/444 425/425
f 435/435 448/448 431/431
f 436/436 425/425 429/429
f 448/448 435/435 449/449
f 425/425 436/436 445/445
f 435/435 430/430 443/443
f 450/450 451/451 452/452
f 430/430 441/441 443/443
f 453/453 451/451 450/450
f 90/90 92/92 454/454
f 453/453 455/455 456/456
f 454/454 457/457 90/90
f 453/453 458/458 455/455
f 459/459 458/458 450/450
f 460/460 461/461 452/452
f 458/458 453/453 450/450
f 452/452 451/451 460/460
f 459/459 450/450 462/462
f 459/459 462/462 463/463
