#
# obj.mtl
#

newmtl tex_0913_0
illum 2
Kd 1.000000 1.000000 1.000000
Ka 1.000000 1.000000 1.000000
Ks 0.000000 0.000000 0.000000
Ke 0.000000 0.000000 0.000000
Ns 0.000000
map_Kd Z:/Virtual/1/1/Office_chair_black/Tex_0913_0.dds

newmtl tex_1175_3
illum 2
Kd 1.000000 1.000000 1.000000
Ka 1.000000 1.000000 1.000000
Ks 0.000000 0.000000 0.000000
Ke 0.000000 0.000000 0.000000
Ns 0.000000
map_Kd Z:/Virtual/1/1/Office_chair_black/Tex_1175_3.dds
