#
# obj.mtl
#

newmtl kamelia_walnut
illum 2
Kd 1.000000 1.000000 1.000000
Ka 1.000000 1.000000 1.000000
Ks 0.000000 0.000000 0.000000
Ke 0.000000 0.000000 0.000000
Ns 0.000000
map_Kd Z:/Virtual/1/1/La_forma_Kamelia_OBJ/Kamelia_Walnut.jpg
