;{material bump
;	{diffuse "cocpit_bf_xx"}
;	{specular "cocpit_bf_sp"}
;	{color "229 229 229 25"}
;	{blend blend}
;}
{material envmap
	{diffuse "cocpit_bf_xx"}
	{mask "cocpit_bf_sp"}
	{blend blend}
	{tile}
}
