#
# obj.mtl
#

newmtl 00
illum 2
Kd 1.000000 1.000000 1.000000
Ka 1.000000 1.000000 1.000000
Ks 0.000000 0.000000 0.000000
Ke 0.000000 0.000000 0.000000
Ns 0.000000
map_Kd Z:/Virtual/1/1/satellite_phone_radio/00.tga
