#
# obj.mtl
#

newmtl v8tr0u
illum 2
Kd 1.000000 1.000000 1.000000
Ka 1.000000 1.000000 1.000000
Ks 0.000000 0.000000 0.000000
Ke 0.000000 0.000000 0.000000
Ns 0.000000
map_Kd Z:/Virtual/1/1/Moon_064/v8TR0U.jpg

newmtl velvet-5
illum 2
Kd 1.000000 1.000000 1.000000
Ka 1.000000 1.000000 1.000000
Ks 0.000000 0.000000 0.000000
Ke 0.000000 0.000000 0.000000
Ns 0.000000
map_Kd Z:/Virtual/1/1/Moon_064/velvet-5.jpg

newmtl wood1
illum 2
Kd 1.000000 1.000000 1.000000
Ka 1.000000 1.000000 1.000000
Ks 0.000000 0.000000 0.000000
Ke 0.000000 0.000000 0.000000
Ns 0.000000
map_Kd Z:/Virtual/1/1/Moon_064/wood1.jpg
