-= Animation: start, Node body =-
	Frame 10 {
		Visibility 1
		Position	-3.0215	0	20.7653
		Orientation	0 0 0 1
	}
	Frame 11 {
		Orientation	0 0.000244549 0 1
	}
	Frame 12 {
		Orientation	0 0.000899941 0 1
	}
	Frame 13 {
		Orientation	0 0.00184879 0 0.999998
	}
	Frame 14 {
		Orientation	0 0.00297371 0 0.999996
	}
	Frame 15 {
		Orientation	0 0.00415732 0 0.999991
	}
	Frame 16 {
		Orientation	0 0.00528224 0 0.999986
	}
	Frame 17 {
		Orientation	0 0.00623107 0 0.999981
	}
	Frame 18 {
		Orientation	0 0.00688645 0 0.999976
	}
	Frame 19 {
		Orientation	0 0.00713099 0 0.999975
	}
	Frame 20 {
		Orientation	0 0.00673677 0 0.999977
	}
	Frame 21 {
		Orientation	0 0.00568023 0 0.999984
	}
	Frame 22 {
		Orientation	0 0.00415061 0 0.999991
	}
	Frame 23 {
		Orientation	0 0.00233712 0 0.999997
	}
	Frame 24 {
		Orientation	0 0.000429012 0 1
	}
	Frame 25 {
		Orientation	0 -0.00138448 0 0.999999
	}
	Frame 26 {
		Orientation	0 -0.00291412 0 0.999996
	}
	Frame 27 {
		Orientation	0 -0.00397067 0 0.999992
	}
	Frame 28 {
		Orientation	0 -0.0043649 0 0.99999
	}
	Frame 29 {
		Orientation	0 -0.00395952 0 0.999992
	}
	Frame 30 {
		Orientation	0 -0.00291404 0 0.999996
	}
	Frame 31 {
		Orientation	0 -0.0014845 0 0.999999
	}
	Frame 32 {
		Orientation	0 7.30659e-005 0 1
	}
	Frame 33 {
		Orientation	0 0.00150261 0 0.999999
	}
	Frame 34 {
		Orientation	0 0.00254809 0 0.999997
	}
	Frame 35 {
		Orientation	0 0.00295349 0 0.999996
	}
	Frame 36 {
		Orientation	0 0.00269892 0 0.999996
	}
	Frame 37 {
		Orientation	0 0.0020424 0 0.999998
	}
	Frame 38 {
		Orientation	0 0.0011447 0 0.999999
	}
	Frame 39 {
		Orientation	0 0.00016662 0 1
	}
	Frame 40 {
		Orientation	0 -0.000731074 0 1
	}
	Frame 41 {
		Orientation	0 -0.0013876 0 0.999999
	}
	Frame 42 {
		Orientation	0 -0.00164217 0 0.999999
	}
	Frame 43 {
		Orientation	0 -0.0015716 0 0.999999
	}
	Frame 44 {
		Orientation	0 -0.00138558 0 0.999999
	}
	Frame 45 {
		Orientation	0 -0.00112257 0 0.999999
	}
	Frame 46 {
		Orientation	0 -0.000821083 0 1
	}
	Frame 47 {
		Orientation	0 -0.000519591 0 1
	}
	Frame 48 {
		Orientation	0 -0.000256588 0 1
	}
	Frame 49 {
		Orientation	0 -7.05618e-005 0 1
	}
	Frame 50 {
		Visibility 1
		Position	-3.0215	0	20.7653
		Orientation	0 0 0 1
	}
-= Animation: stop, Node body =-
	Frame 60 {
		Visibility 1
		Position	-3.0215	0	20.7653
		Orientation	0 0 0 1
	}
	Frame 61 {
		Orientation	0 -0.000390235 0 1
	}
	Frame 62 {
		Orientation	0 -0.00141904 0 0.999999
	}
	Frame 63 {
		Orientation	0 -0.00287355 0 0.999996
	}
	Frame 64 {
		Orientation	0 -0.00454091 0 0.99999
	}
	Frame 65 {
		Orientation	0 -0.00620825 0 0.999981
	}
	Frame 66 {
		Orientation	0 -0.00766273 0 0.999971
	}
	Frame 67 {
		Orientation	0 -0.0086915 0 0.999962
	}
	Frame 68 {
		Orientation	0 -0.00908172 0 0.999959
	}
	Frame 74 {
		Orientation	0 -0.00867067 0 0.999962
	}
	Frame 75 {
		Orientation	0 -0.00756904 0 0.999971
	}
	Frame 76 {
		Orientation	0 -0.00597413 0 0.999982
	}
	Frame 77 {
		Orientation	0 -0.00408324 0 0.999992
	}
	Frame 78 {
		Orientation	0 -0.00209367 0 0.999998
	}
	Frame 79 {
		Orientation	0 -0.000202758 0 1
	}
	Frame 80 {
		Orientation	0 0.00139219 0 0.999999
	}
	Frame 81 {
		Orientation	0 0.00249385 0 0.999997
	}
	Frame 82 {
		Orientation	0 0.00290492 0 0.999996
	}
	Frame 83 {
		Orientation	0 0.0026735 0 0.999996
	}
	Frame 84 {
		Orientation	0 0.00206338 0 0.999998
	}
	Frame 85 {
		Orientation	0 0.00120081 0 0.999999
	}
	Frame 86 {
		Orientation	0 0.000211996 0 1
	}
	Frame 87 {
		Orientation	0 -0.000776814 0 1
	}
	Frame 88 {
		Orientation	0 -0.00163939 0 0.999999
	}
	Frame 89 {
		Orientation	0 -0.00224951 0 0.999997
	}
	Frame 90 {
		Orientation	0 -0.00248093 0 0.999997
	}
	Frame 91 {
		Orientation	0 -0.00241146 0 0.999997
	}
	Frame 92 {
		Orientation	0 -0.00222291 0 0.999997
	}
	Frame 93 {
		Orientation	0 -0.00194505 0 0.999998
	}
	Frame 94 {
		Orientation	0 -0.00160764 0 0.999999
	}
	Frame 95 {
		Orientation	0 -0.00124047 0 0.999999
	}
	Frame 96 {
		Orientation	0 -0.000873288 0 1
	}
	Frame 97 {
		Orientation	0 -0.000535881 0 1
	}
	Frame 98 {
		Orientation	0 -0.000258017 0 1
	}
	Frame 99 {
		Orientation	0 -6.94661e-005 0 1
	}
	Frame 100 {
		Visibility 1
		Position	-3.0215	0	20.7653
		Orientation	0 0 0 1
	}
-= Animation: fire, Node body =-
	Frame 120 {
		Visibility 1
		Position	-3.0215	0	20.7653
		Orientation	0 0 0 1
	}
	Frame 121 {
		Orientation	0 0.000343911 0 1
	}
	Frame 122 {
		Orientation	0 0.00125058 0 0.999999
	}
	Frame 123 {
		Orientation	0 0.00253243 0 0.999997
	}
	Frame 124 {
		Orientation	0 0.00400185 0 0.999992
	}
	Frame 125 {
		Orientation	0 0.00547127 0 0.999985
	}
	Frame 126 {
		Orientation	0 0.00675309 0 0.999977
	}
	Frame 127 {
		Orientation	0 0.00765974 0 0.999971
	}
	Frame 128 {
		Orientation	0 0.00800364 0 0.999968
	}
	Frame 129 {
		Orientation	0 0.00727018 0 0.999974
	}
	Frame 130 {
		Orientation	0 0.0053786 0 0.999986
	}
	Frame 131 {
		Orientation	0 0.00279213 0 0.999996
	}
	Frame 132 {
		Orientation	0 -2.5988e-005 0 1
	}
	Frame 133 {
		Orientation	0 -0.00261248 0 0.999997
	}
	Frame 134 {
		Orientation	0 -0.00450408 0 0.99999
	}
	Frame 135 {
		Orientation	0 -0.00523756 0 0.999986
	}
	Frame 136 {
		Orientation	0 -0.00495666 0 0.999988
	}
	Frame 137 {
		Orientation	0 -0.00420386 0 0.999991
	}
	Frame 138 {
		Orientation	0 -0.00311397 0 0.999995
	}
	Frame 139 {
		Orientation	0 -0.00182183 0 0.999998
	}
	Frame 140 {
		Orientation	0 -0.000462266 0 1
	}
	Frame 141 {
		Orientation	0 0.000829878 0 1
	}
	Frame 142 {
		Orientation	0 0.00191977 0 0.999998
	}
	Frame 143 {
		Orientation	0 0.00267259 0 0.999996
	}
	Frame 144 {
		Orientation	0 0.00295349 0 0.999996
	}
	Frame 145 {
		Orientation	0 0.00269892 0 0.999996
	}
	Frame 146 {
		Orientation	0 0.0020424 0 0.999998
	}
	Frame 147 {
		Orientation	0 0.0011447 0 0.999999
	}
	Frame 148 {
		Orientation	0 0.000166621 0 1
	}
	Frame 149 {
		Orientation	0 -0.000731073 0 1
	}
	Frame 150 {
		Orientation	0 -0.0013876 0 0.999999
	}
	Frame 151 {
		Orientation	0 -0.00164217 0 0.999999
	}
	Frame 152 {
		Orientation	0 -0.00158585 0 0.999999
	}
	Frame 153 {
		Orientation	0 -0.00143492 0 0.999999
	}
	Frame 154 {
		Orientation	0 -0.00121642 0 0.999999
	}
	Frame 155 {
		Orientation	0 -0.000957367 0 1
	}
	Frame 156 {
		Orientation	0 -0.000684799 0 1
	}
	Frame 157 {
		Orientation	0 -0.000425747 0 1
	}
	Frame 158 {
		Orientation	0 -0.000207242 0 1
	}
	Frame 159 {
		Orientation	0 -5.63157e-005 0 1
	}
	Frame 160 {
		Visibility 1
		Position	-3.0215	0	20.7653
		Orientation	0 0 0 1
	}
-= Animation: open, Node cover3 =-
	Frame 170 {
		Visibility 1
		Position	-1.7335	-8.84624	12.9382
		Orientation	0 0 0 1
	}
	Frame 171 {
		Orientation	0 -0.0138975 0 0.999903
	}
	Frame 172 {
		Orientation	0 -0.0529815 0 0.998595
	}
	Frame 173 {
		Orientation	0 -0.113203 0 0.993572
	}
	Frame 174 {
		Orientation	0 -0.190174 0 0.98175
	}
	Frame 175 {
		Orientation	0 -0.279053 0 0.960276
	}
	Frame 176 {
		Orientation	0 -0.374607 0 0.927184
	}
	Frame 177 {
		Orientation	0 -0.471468 0 0.881883
	}
	Frame 178 {
		Orientation	0 -0.56454 0 0.825406
	}
	Frame 179 {
		Orientation	0 -0.649448 0 0.760406
	}
	Frame 180 {
		Orientation	0 -0.722923 0 0.690929
	}
	Frame 181 {
		Orientation	0 -0.78301 0 0.622009
	}
	Frame 182 {
		Orientation	0 -0.829038 0 0.559193
	}
	Frame 183 {
		Orientation	0 -0.861301 0 0.508095
	}
	Frame 184 {
		Orientation	0 0.880508 0 -0.474031
	}
	Frame 185 {
		Visibility 1
		Position	-1.7335	-8.84624	12.9382
		Orientation	0 0.887011 0 -0.461749
	}
-= Animation: open, Node cover1 =-
	Frame 170 {
		Visibility 1
		Position	4.73687	2.00346e-005	-0.589306
		Orientation	0 0 0 1
	}
	Frame 171 {
		Orientation	0 -0.0127858 0 0.999918
	}
	Frame 172 {
		Orientation	0 -0.0487465 0 0.998811
	}
	Frame 173 {
		Orientation	0 -0.104181 0 0.994558
	}
	Frame 174 {
		Orientation	0 -0.175125 0 0.984546
	}
	Frame 175 {
		Orientation	0 -0.257258 0 0.966343
	}
	Frame 176 {
		Orientation	0 -0.345953 0 0.938252
	}
	Frame 177 {
		Orientation	0 -0.436476 0 0.899716
	}
	Frame 178 {
		Orientation	0 -0.524294 0 0.851537
	}
	Frame 179 {
		Orientation	0 -0.605433 0 0.795896
	}
	Frame 180 {
		Orientation	0 -0.676781 0 0.736185
	}
	Frame 181 {
		Orientation	0 -0.736263 0 0.676695
	}
	Frame 182 {
		Orientation	0 -0.782825 0 0.622241
	}
	Frame 183 {
		Orientation	0 -0.816197 0 0.577773
	}
	Frame 184 {
		Orientation	0 -0.836453 0 0.548039
	}
	Frame 185 {
		Visibility 1
		Position	4.73687	2.00346e-005	-0.589306
		Orientation	0 -0.843391 0 0.5373
	}
-= Animation: open2, Node cover1 =-
	Frame 200 {
		Visibility 1
		Position	4.73687	2.00346e-005	-0.589306
		Orientation	0 0 0 1
	}
	Frame 201 {
		Orientation	0 -0.0138975 0 0.999903
	}
	Frame 202 {
		Orientation	0 -0.0529815 0 0.998595
	}
	Frame 203 {
		Orientation	0 -0.113203 0 0.993572
	}
	Frame 204 {
		Orientation	0 -0.190174 0 0.98175
	}
	Frame 205 {
		Orientation	0 -0.279053 0 0.960276
	}
	Frame 206 {
		Orientation	0 -0.374607 0 0.927184
	}
	Frame 207 {
		Orientation	0 -0.471468 0 0.881883
	}
	Frame 208 {
		Orientation	0 -0.56454 0 0.825406
	}
	Frame 209 {
		Orientation	0 -0.649448 0 0.760406
	}
	Frame 210 {
		Orientation	0 -0.722922 0 0.690929
	}
	Frame 211 {
		Orientation	0 -0.78301 0 0.622009
	}
	Frame 212 {
		Orientation	0 -0.829037 0 0.559193
	}
	Frame 213 {
		Orientation	0 -0.861301 0 0.508095
	}
	Frame 214 {
		Orientation	0 0.880508 0 -0.474031
	}
	Frame 215 {
		Visibility 1
		Position	4.73687	2.00346e-005	-0.589306
		Orientation	0 0.887011 0 -0.461749
	}
-= Animation: open, Node cover2 =-
	Frame 170 {
		Visibility 1
		Position	-4.73713	2.00272e-005	-0.589306
		Orientation	0 0 0 1
	}
	Frame 171 {
		Orientation	0 0.0133417 0 0.999911
	}
	Frame 172 {
		Orientation	0 0.0508641 0 0.998706
	}
	Frame 173 {
		Orientation	0 0.108693 0 0.994075
	}
	Frame 174 {
		Orientation	0 0.182655 0 0.983177
	}
	Frame 175 {
		Orientation	0 0.268173 0 0.963371
	}
	Frame 176 {
		Orientation	0 0.360322 0 0.932828
	}
	Frame 177 {
		Orientation	0 0.45406 0 0.890971
	}
	Frame 178 {
		Orientation	0 0.544574 0 0.838713
	}
	Frame 179 {
		Orientation	0 0.627691 0 0.778462
	}
	Frame 180 {
		Orientation	0 0.700217 0 0.71393
	}
	Frame 181 {
		Orientation	0 0.760129 0 0.649772
	}
	Frame 182 {
		Orientation	0 0.806548 0 0.591169
	}
	Frame 183 {
		Orientation	0 0.839472 0 0.543402
	}
	Frame 184 {
		Orientation	0 0.859278 0 0.51151
	}
	Frame 185 {
		Visibility 1
		Position	-4.73713	2.00272e-005	-0.589306
		Orientation	0 0.866025 0 0.5
	}
-= Animation: open2, Node cover2 =-
	Frame 200 {
		Visibility 1
		Position	-4.73713	2.00272e-005	-0.589306
		Orientation	0 0 0 1
	}
	Frame 201 {
		Orientation	0 0.0138975 0 0.999903
	}
	Frame 202 {
		Orientation	0 0.0529815 0 0.998595
	}
	Frame 203 {
		Orientation	0 0.113203 0 0.993572
	}
	Frame 204 {
		Orientation	0 0.190174 0 0.98175
	}
	Frame 205 {
		Orientation	0 0.279053 0 0.960276
	}
	Frame 206 {
		Orientation	0 0.374607 0 0.927184
	}
	Frame 207 {
		Orientation	0 0.471468 0 0.881883
	}
	Frame 208 {
		Orientation	0 0.56454 0 0.825406
	}
	Frame 209 {
		Orientation	0 0.649448 0 0.760406
	}
	Frame 210 {
		Orientation	0 0.722923 0 0.690929
	}
	Frame 211 {
		Orientation	0 0.78301 0 0.622009
	}
	Frame 212 {
		Orientation	0 0.829038 0 0.559193
	}
	Frame 213 {
		Orientation	0 0.861301 0 0.508095
	}
	Frame 214 {
		Orientation	0 0.880508 0 0.474031
	}
	Frame 215 {
		Visibility 1
		Position	-4.73713	2.00272e-005	-0.589306
		Orientation	0 0.887011 0 0.461749
	}
-= Animation: fire, Node gun =-
	Frame 120 {
		Visibility 1
		Position	45.1638	-0.454262	0
		Orientation	0.707107 0 0 0.707107
	}
	Frame 121 {
		Position	44.8796	-0.454262	0
	}
	Frame 122 {
		Position	44.169	-0.454258	0
	}
	Frame 123 {
		Position	43.2452	-0.454262	0
	}
	Frame 124 {
		Position	42.3214	-0.454262	0
	}
	Frame 125 {
		Position	41.6108	-0.454258	0
	}
	Frame 126 {
		Position	41.3265	-0.454258	0
	}
	Frame 127 {
		Position	41.6108	-0.454262	0
	}
	Frame 128 {
		Position	42.3214	-0.454262	0
	}
	Frame 129 {
		Position	43.2452	-0.454266	0
	}
	Frame 130 {
		Position	44.1689	-0.454258	0
	}
	Frame 131 {
		Position	44.8796	-0.454266	0
	}
	Frame 132 {
		Position	45.1638	-0.454258	0
	}
	Frame 160 {
		Visibility 1
		Position	45.1638	-0.454262	0
		Orientation	0.707107 0 0 0.707107
	}
-= Animation: repair, Node engine =-
	Frame 220 {
		Visibility 1
		Position	-25.3206	0.295452	-1.19916
		Orientation	0 0 0 1
	}
	Frame 230 {
		Visibility 1
		Position	-25.3206	0.295452	-1.19916
		Orientation	0 0 0 1
	}
-= Animation: repair, Node engine_cover1 =-
	Frame 220 {
		Visibility 1
		Position	2.41713	-7.13195	11.7824
		Orientation	0 0 0 1
	}
	Frame 221 {
		Orientation	-0.000907247 0 0 1
	}
	Frame 222 {
		Orientation	-0.00336977 0 0 0.999994
	}
	Frame 223 {
		Orientation	-0.0069987 0 0 0.999976
	}
	Frame 224 {
		Orientation	-0.0114051 0 0 0.999935
	}
	Frame 225 {
		Orientation	-0.0162001 0 0 0.999869
	}
	Frame 226 {
		Orientation	-0.0209947 0 0 0.99978
	}
	Frame 227 {
		Orientation	-0.0254001 0 0 0.999677
	}
	Frame 228 {
		Orientation	-0.0290277 0 0 0.999579
	}
	Frame 229 {
		Orientation	-0.0314891 0 0 0.999504
	}
	Frame 230 {
		Visibility 1
		Position	2.41713	-7.13195	11.7824
		Orientation	-0.0323959 0 0 0.999475
	}
