#
# obj.mtl
#

newmtl hammer_melee_ds
illum 2
Kd 1.000000 1.000000 1.000000
Ka 1.000000 1.000000 1.000000
Ks 0.000000 0.000000 0.000000
Ke 0.000000 0.000000 0.000000
Ns 0.000000
map_Kd Z:/Virtual/1/1/Hammer/hammer_melee_ds.tga
